Project 1: Exploratory Data Analysis
…
## # A tibble: 1 x 3
##   mean_alchohol mean_life mean_BMI
##           <dbl>     <dbl>    <dbl>
## 1          4.68      69.9     38.4

Filter, Select

lifeex_alcohol <- global %>% filter(total_litres_of_pure_alcohol > 
    mean(total_litres_of_pure_alcohol) | `Life expectancy` > 
    mean(`Life expectancy`))

lifeex_alcohol %>% select(country)

## # A tibble: 111 x 1
##    country   
##    <chr>     
##  1 Albania   
##  2 Algeria   
##  3 Angola    
##  4 Argentina 
##  5 Armenia   
##  6 Australia 
##  7 Austria   
##  8 Azerbaijan
##  9 Bahamas   
## 10 Bahrain   
## # … with 101 more rows
…
